/Users/dim/Projects/pv-test/api-services/src/main/java/com/apiservices/springboot/configuration/BasicConfiguration.java
/Users/dim/Projects/pv-test/api-services/src/main/java/com/apiservices/springboot/ApiApplication.java
/Users/dim/Projects/pv-test/api-services/src/main/java/com/apiservices/springboot/security/SecurityConfig.java
/Users/dim/Projects/pv-test/api-services/src/main/java/com/apiservices/springboot/repository/TranslationRepository.java
/Users/dim/Projects/pv-test/api-services/src/main/java/com/apiservices/springboot/controller/TranslationController.java
/Users/dim/Projects/pv-test/api-services/src/main/java/com/apiservices/springboot/configuration/ProductionOnlyConfiguration.java
/Users/dim/Projects/pv-test/api-services/src/main/java/com/apiservices/springboot/configuration/DevelopmentOnlyConfiguration.java
/Users/dim/Projects/pv-test/api-services/src/main/java/com/apiservices/springboot/TranslationCommandLineRunner.java
/Users/dim/Projects/pv-test/api-services/src/main/java/com/apiservices/springboot/model/Translation.java
/Users/dim/Projects/pv-test/api-services/src/main/java/com/apiservices/springboot/security/SecurityProblemSupport.java
